{
    "name": "BloxniperControls",
    "maps": [
        {
            "name": "gameplay",
            "id": "265c38f5-dd18-4d34-b198-aec58e1627ff",
            "actions": [
                {
                    "name": "fire",
                    "type": "Button",
                    "id": "1077f913-a9f9-41b1-acb3-b9ee0adbc744",
                    "expectedControlType": "Button",
                    "processors": "",
                    "interactions": "Tap,SlowTap",
                    "initialStateCheck": false
                },
                {
                    "name": "move",
                    "type": "Value",
                    "id": "50fd2809-3aa3-4a90-988e-1facf6773553",
                    "expectedControlType": "Vector2",
                    "processors": "",
                    "interactions": "",
                    "initialStateCheck": true
                },
                {
                    "name": "look",
                    "type": "Value",
                    "id": "c60e0974-d140-4597-a40e-9862193067e9",
                    "expectedControlType": "Vector2",
                    "processors": "",
                    "interactions": "",
                    "initialStateCheck": true
                },
                {
                    "name": "restart",
                    "type": "Button",
                    "id": "2d19d1a3-94d0-4d82-b5c5-b0a7bb15ea11",
                    "expectedControlType": "Button",
                    "processors": "",
                    "interactions": "",
                    "initialStateCheck": false
                },
                {
                    "name": "escape",
                    "type": "Button",
                    "id": "3138565f-7dbd-42e1-ac90-0d3a090fd06e",
                    "expectedControlType": "Button",
                    "processors": "",
                    "interactions": "",
                    "initialStateCheck": false
                },
                {
                    "name": "aim",
                    "type": "Button",
                    "id": "9038828d-994c-4340-9a92-8070ad298884",
                    "expectedControlType": "Button",
                    "processors": "",
                    "interactions": "",
                    "initialStateCheck": false
                },
                {
                    "name": "cycle_mechanic",
                    "type": "Button",
                    "id": "c7c3fead-29f8-4ffb-ba86-bd6d28b87a14",
                    "expectedControlType": "Button",
                    "processors": "",
                    "interactions": "",
                    "initialStateCheck": false
                }
            ],
            "bindings": [
                {
                    "name": "",
                    "id": "abb776f3-f329-4f7b-bbf8-b577d13be018",
                    "path": "*/{PrimaryAction}",
                    "interactions": "",
                    "processors": "",
                    "groups": "",
                    "action": "fire",
                    "isComposite": false,
                    "isPartOfComposite": false
                },
                {
                    "name": "",
                    "id": "e1b8c4dd-7b3a-4db6-a93a-0889b59b1afc",
                    "path": "<Gamepad>/leftStick",
                    "interactions": "",
                    "processors": "",
                    "groups": "",
                    "action": "move",
                    "isComposite": false,
                    "isPartOfComposite": false
                },
                {
                    "name": "WASD",
                    "id": "cefc16fc-557a-44b0-939f-2ad792876b07",
                    "path": "Dpad",
                    "interactions": "",
                    "processors": "",
                    "groups": "",
                    "action": "move",
                    "isComposite": true,
                    "isPartOfComposite": false
                },
                {
                    "name": "up",
                    "id": "07244659-79df-461d-b329-defbe2fbc5f6",
                    "path": "<Keyboard>/w",
                    "interactions": "",
                    "processors": "",
                    "groups": "",
                    "action": "move",
                    "isComposite": false,
                    "isPartOfComposite": true
                },
                {
                    "name": "down",
                    "id": "f0ec75cb-f02c-40d2-a33f-1fd6eab2ae0b",
                    "path": "<Keyboard>/s",
                    "interactions": "",
                    "processors": "",
                    "groups": "",
                    "action": "move",
                    "isComposite": false,
                    "isPartOfComposite": true
                },
                {
                    "name": "left",
                    "id": "21fe6bfe-4721-4483-9f4a-a0031ade105c",
                    "path": "<Keyboard>/a",
                    "interactions": "",
                    "processors": "",
                    "groups": "",
                    "action": "move",
                    "isComposite": false,
                    "isPartOfComposite": true
                },
                {
                    "name": "right",
                    "id": "2dd39746-c75c-4a11-838a-e59eacaf4e0b",
                    "path": "<Keyboard>/d",
                    "interactions": "",
                    "processors": "",
                    "groups": "",
                    "action": "move",
                    "isComposite": false,
                    "isPartOfComposite": true
                },
                {
                    "name": "Arrow Keys",
                    "id": "b5c40d19-a1e5-4fb8-869f-8ec6f2899dee",
                    "path": "2DVector",
                    "interactions": "",
                    "processors": "",
                    "groups": "",
                    "action": "move",
                    "isComposite": true,
                    "isPartOfComposite": false
                },
                {
                    "name": "up",
                    "id": "5d9aede2-8309-484a-b249-70c91992fea4",
                    "path": "<Keyboard>/upArrow",
                    "interactions": "",
                    "processors": "",
                    "groups": "",
                    "action": "move",
                    "isComposite": false,
                    "isPartOfComposite": true
                },
                {
                    "name": "down",
                    "id": "1bb30539-b0dc-4d3c-921f-6c44f97f1c00",
                    "path": "<Keyboard>/downArrow",
                    "interactions": "",
                    "processors": "",
                    "groups": "",
                    "action": "move",
                    "isComposite": false,
                    "isPartOfComposite": true
                },
                {
                    "name": "left",
                    "id": "1781471b-a12b-4f63-a95f-43ed1c5880bb",
                    "path": "<Keyboard>/leftArrow",
                    "interactions": "",
                    "processors": "",
                    "groups": "",
                    "action": "move",
                    "isComposite": false,
                    "isPartOfComposite": true
                },
                {
                    "name": "right",
                    "id": "515b388d-5728-4b96-bf49-035f92df3620",
                    "path": "<Keyboard>/rightArrow",
                    "interactions": "",
                    "processors": "",
                    "groups": "",
                    "action": "move",
                    "isComposite": false,
                    "isPartOfComposite": true
                },
                {
                    "name": "",
                    "id": "c106d6e6-2780-47ff-b318-396171bd54cc",
                    "path": "<Gamepad>/rightStick",
                    "interactions": "",
                    "processors": "",
                    "groups": "",
                    "action": "look",
                    "isComposite": false,
                    "isPartOfComposite": false
                },
                {
                    "name": "",
                    "id": "578caa03-6827-4797-adfc-a59770c437fe",
                    "path": "<Pointer>/delta",
                    "interactions": "",
                    "processors": "",
                    "groups": "",
                    "action": "look",
                    "isComposite": false,
                    "isPartOfComposite": false
                },
                {
                    "name": "",
                    "id": "b4b93838-d642-4d4e-a7d2-c1ab421f8c61",
                    "path": "<Keyboard>/#(R)",
                    "interactions": "",
                    "processors": "",
                    "groups": "",
                    "action": "restart",
                    "isComposite": false,
                    "isPartOfComposite": false
                },
                {
                    "name": "",
                    "id": "4348c360-24f3-4895-8db3-f51e664fd1ff",
                    "path": "<Gamepad>/start",
                    "interactions": "",
                    "processors": "",
                    "groups": "",
                    "action": "restart",
                    "isComposite": false,
                    "isPartOfComposite": false
                },
                {
                    "name": "",
                    "id": "d9c7e7cf-856e-46cd-8004-6f05f4704731",
                    "path": "<Gamepad>/select",
                    "interactions": "",
                    "processors": "",
                    "groups": "",
                    "action": "escape",
                    "isComposite": false,
                    "isPartOfComposite": false
                },
                {
                    "name": "",
                    "id": "e4cf628d-5355-4590-a8f2-6d979458c823",
                    "path": "<Keyboard>/{Cancel}",
                    "interactions": "",
                    "processors": "",
                    "groups": "",
                    "action": "escape",
                    "isComposite": false,
                    "isPartOfComposite": false
                },
                {
                    "name": "",
                    "id": "32516618-56fc-4109-8754-305064b9a469",
                    "path": "<Keyboard>/space",
                    "interactions": "",
                    "processors": "",
                    "groups": "",
                    "action": "aim",
                    "isComposite": false,
                    "isPartOfComposite": false
                },
                {
                    "name": "",
                    "id": "eedaa489-6566-47f5-9f1a-97896bc9fcac",
                    "path": "<Gamepad>/leftTrigger",
                    "interactions": "",
                    "processors": "",
                    "groups": "",
                    "action": "aim",
                    "isComposite": false,
                    "isPartOfComposite": false
                },
                {
                    "name": "",
                    "id": "2a406248-199e-4cfa-9b49-97268ab4d010",
                    "path": "<Keyboard>/tab",
                    "interactions": "",
                    "processors": "",
                    "groups": "",
                    "action": "cycle_mechanic",
                    "isComposite": false,
                    "isPartOfComposite": false
                }
            ]
        }
    ],
    "controlSchemes": []
}