%YAML 1.1
%TAG !u! tag:unity3d.com,2011:
--- !u!114 &11400000
MonoBehaviour:
  m_ObjectHideFlags: 0
  m_CorrespondingSourceObject: {fileID: 0}
  m_PrefabInstance: {fileID: 0}
  m_PrefabAsset: {fileID: 0}
  m_GameObject: {fileID: 0}
  m_Enabled: 1
  m_EditorHideFlags: 0
  m_Script: {fileID: 11500000, guid: a9f0437ae7534cbfb6009e86351b1138, type: 3}
  m_Name: ProjectilePool
  m_EditorClassIdentifier: 
  m_Prefab: {fileID: 7114680612102163335, guid: 07af0ece112417e419ffa3f60bd716d0, type: 3}
